257.134500, 1200.00, 150.00, 852, 7.00, 5.00, 5.00, BLOCK_4=pattern
267.655500, 1200.00, 150.00, 852, 7.00, 5.00, 5.00, BLOCK_4=pattern
278.175500, 1200.00, 150.00, 852, 7.00, 5.00, 5.00, BLOCK_4=pattern
288.695000, 1200.00, 150.00, 852, 7.00, 5.00, 5.00, BLOCK_4=pattern
299.216000, 1200.00, 150.00, 852, 7.00, 5.00, 5.00, BLOCK_4=pattern
309.736000, 1200.00, 150.00, 852, 7.00, 5.00, 5.00, BLOCK_4=pattern
320.256500, 1200.00, 150.00, 852, 7.00, 5.00, 5.00, BLOCK_4=pattern
330.776500, 1200.00, 150.00, 852, 7.00, 5.00, 5.00, BLOCK_4=pattern
341.296500, 1200.00, 150.00, 852, 7.00, 5.00, 5.00, BLOCK_4=pattern
351.817000, 1200.00, 150.00, 852, 7.00, 5.00, 5.00, BLOCK_4=pattern
362.337000, 1200.00, 150.00, 852, 7.00, 5.00, 5.00, BLOCK_4=pattern
372.858000, 1200.00, 150.00, 852, 7.00, 5.00, 5.00, BLOCK_4=pattern
383.377500, 1200.00, 150.00, 852, 7.00, 5.00, 5.00, BLOCK_4=pattern
393.897500, 1200.00, 150.00, 852, 7.00, 5.00, 5.00, BLOCK_4=pattern
404.418500, 1200.00, 150.00, 852, 7.00, 5.00, 5.00, BLOCK_4=pattern
414.938000, 1200.00, 150.00, 852, 7.00, 5.00, 5.00, BLOCK_4=pattern
425.459000, 1200.00, 150.00, 852, 7.00, 5.00, 5.00, BLOCK_4=pattern
435.978500, 1200.00, 150.00, 852, 7.00, 5.00, 5.00, BLOCK_4=pattern
446.498500, 1200.00, 150.00, 852, 7.00, 5.00, 5.00, BLOCK_4=pattern
457.019500, 1200.00, 150.00, 852, 7.00, 5.00, 5.00, BLOCK_4=pattern
467.539000, 1200.00, 150.00, 852, 7.00, 5.00, 5.00, BLOCK_4=pattern
478.060000, 1200.00, 150.00, 852, 7.00, 5.00, 5.00, BLOCK_4=pattern
488.580000, 1200.00, 150.00, 852, 7.00, 5.00, 5.00, BLOCK_4=pattern
499.099500, 1200.00, 150.00, 852, 7.00, 5.00, 5.00, BLOCK_4=pattern
509.620500, 1200.00, 150.00, 852, 7.00, 5.00, 5.00, BLOCK_4=pattern
520.140500, 1200.00, 150.00, 852, 7.00, 5.00, 5.00, BLOCK_4=pattern
530.661000, 1200.00, 150.00, 852, 7.00, 5.00, 5.00, BLOCK_4=pattern
541.181000, 1200.00, 150.00, 852, 7.00, 5.00, 5.00, BLOCK_4=pattern
551.701000, 1200.00, 150.00, 852, 7.00, 5.00, 5.00, BLOCK_4=pattern
562.221500, 1200.00, 150.00, 852, 7.00, 5.00, 5.00, BLOCK_4=pattern
572.741500, 1200.00, 150.00, 852, 7.00, 5.00, 5.00, BLOCK_4=pattern
583.262500, 1200.00, 150.00, 852, 7.00, 5.00, 5.00, BLOCK_4=pattern
593.782000, 1200.00, 150.00, 852, 7.00, 5.00, 5.00, BLOCK_4=pattern
604.302000, 1200.00, 150.00, 852, 7.00, 5.00, 5.00, BLOCK_4=pattern
614.823000, 1200.00, 150.00, 852, 7.00, 5.00, 5.00, BLOCK_4=pattern
625.342500, 1200.00, 150.00, 852, 7.00, 5.00, 5.00, BLOCK_4=pattern
635.863500, 1200.00, 150.00, 852, 7.00, 5.00, 5.00, BLOCK_4=pattern
646.383000, 1200.00, 150.00, 852, 7.00, 5.00, 5.00, BLOCK_4=pattern
656.903000, 1200.00, 150.00, 852, 7.00, 5.00, 5.00, BLOCK_4=pattern
667.424000, 1200.00, 150.00, 852, 7.00, 5.00, 5.00, BLOCK_4=pattern
677.944000, 1200.00, 150.00, 852, 7.00, 5.00, 5.00, BLOCK_4=pattern
688.464500, 1200.00, 150.00, 852, 7.00, 5.00, 5.00, BLOCK_4=pattern
698.984500, 1200.00, 150.00, 852, 7.00, 5.00, 5.00, BLOCK_4=pattern
709.504000, 1200.00, 150.00, 852, 7.00, 5.00, 5.00, BLOCK_4=pattern
720.025000, 1200.00, 150.00, 852, 7.00, 5.00, 5.00, BLOCK_4=pattern
730.545000, 1200.00, 150.00, 852, 7.00, 5.00, 5.00, BLOCK_4=pattern
741.066000, 1200.00, 150.00, 852, 7.00, 5.00, 5.00, BLOCK_4=pattern
751.585500, 1200.00, 150.00, 852, 7.00, 5.00, 5.00, BLOCK_4=pattern
762.105500, 1200.00, 150.00, 852, 7.00, 5.00, 5.00, BLOCK_4=pattern
772.626000, 1200.00, 150.00, 852, 7.00, 5.00, 5.00, BLOCK_4=pattern
783.146000, 1200.00, 150.00, 852, 7.00, 5.00, 5.00, BLOCK_4=pattern
793.667000, 1200.00, 150.00, 852, 7.00, 5.00, 5.00, BLOCK_4=pattern
804.186500, 1200.00, 150.00, 852, 7.00, 5.00, 5.00, BLOCK_4=pattern
814.706500, 1200.00, 150.00, 852, 7.00, 5.00, 5.00, BLOCK_4=pattern
825.227500, 1200.00, 150.00, 852, 7.00, 5.00, 5.00, BLOCK_4=pattern
835.747000, 1200.00, 150.00, 852, 7.00, 5.00, 5.00, BLOCK_4=pattern
846.268000, 1200.00, 150.00, 852, 7.00, 5.00, 5.00, BLOCK_4=pattern
856.788000, 1200.00, 150.00, 852, 7.00, 5.00, 5.00, BLOCK_4=pattern
867.307500, 1200.00, 150.00, 852, 7.00, 5.00, 5.00, BLOCK_4=pattern
877.828500, 1200.00, 150.00, 852, 7.00, 5.00, 5.00, BLOCK_4=pattern
888.348500, 1200.00, 150.00, 852, 7.00, 5.00, 5.00, BLOCK_4=pattern
898.869000, 1200.00, 150.00, 852, 7.00, 5.00, 5.00, BLOCK_4=pattern
909.389000, 1200.00, 150.00, 852, 7.00, 5.00, 5.00, BLOCK_4=pattern
919.908500, 1200.00, 150.00, 852, 7.00, 5.00, 5.00, BLOCK_4=pattern
930.429500, 1200.00, 150.00, 852, 7.00, 5.00, 5.00, BLOCK_4=pattern
940.949500, 1200.00, 150.00, 852, 7.00, 5.00, 5.00, BLOCK_4=pattern
951.470000, 1200.00, 150.00, 852, 7.00, 5.00, 5.00, BLOCK_4=pattern
961.990000, 1200.00, 150.00, 852, 7.00, 5.00, 5.00, BLOCK_4=pattern
972.510000, 1200.00, 150.00, 852, 7.00, 5.00, 5.00, BLOCK_4=pattern
983.030500, 1200.00, 150.00, 852, 7.00, 5.00, 5.00, BLOCK_4=pattern
993.550500, 1200.00, 150.00, 852, 7.00, 5.00, 5.00, BLOCK_4=pattern
1004.071500, 1200.00, 150.00, 852, 7.00, 5.00, 5.00, BLOCK_4=pattern
1014.591000, 1200.00, 150.00, 852, 7.00, 5.00, 5.00, BLOCK_4=pattern
1025.111000, 1200.00, 150.00, 852, 7.00, 5.00, 5.00, BLOCK_4=pattern
1035.632000, 1200.00, 150.00, 852, 7.00, 5.00, 5.00, BLOCK_4=pattern
1046.151500, 1200.00, 150.00, 852, 7.00, 5.00, 5.00, BLOCK_4=pattern
1056.672500, 1200.00, 150.00, 852, 7.00, 5.00, 5.00, BLOCK_4=pattern
1067.192500, 1200.00, 150.00, 852, 7.00, 5.00, 5.00, BLOCK_4=pattern
1077.712000, 1200.00, 150.00, 852, 7.00, 5.00, 5.00, BLOCK_4=pattern
1088.233000, 1200.00, 150.00, 852, 7.00, 5.00, 5.00, BLOCK_4=pattern
1098.753000, 1200.00, 150.00, 852, 7.00, 5.00, 5.00, BLOCK_4=pattern
1109.273500, 1200.00, 150.00, 852, 7.00, 5.00, 5.00, BLOCK_4=pattern
1119.793500, 1200.00, 150.00, 852, 7.00, 5.00, 5.00, BLOCK_4=pattern
1130.313500, 1200.00, 150.00, 852, 7.00, 5.00, 5.00, BLOCK_4=pattern
1140.834000, 1200.00, 150.00, 852, 7.00, 5.00, 5.00, BLOCK_4=pattern
1151.354000, 1200.00, 150.00, 852, 7.00, 5.00, 5.00, BLOCK_4=pattern
1161.875000, 1200.00, 150.00, 852, 7.00, 5.00, 5.00, BLOCK_4=pattern
1172.394500, 1200.00, 150.00, 852, 7.00, 5.00, 5.00, BLOCK_4=pattern
1182.914500, 1200.00, 150.00, 852, 7.00, 5.00, 5.00, BLOCK_4=pattern
1193.435000, 1200.00, 150.00, 852, 7.00, 5.00, 5.00, BLOCK_4=pattern
1203.955000, 1200.00, 150.00, 852, 7.00, 5.00, 5.00, BLOCK_4=pattern
1214.476000, 1200.00, 150.00, 852, 7.00, 5.00, 5.00, BLOCK_4=pattern
1224.996000, 1200.00, 150.00, 852, 7.00, 5.00, 5.00, BLOCK_4=pattern
1235.515500, 1200.00, 150.00, 852, 7.00, 5.00, 5.00, BLOCK_4=pattern
1246.036500, 1200.00, 150.00, 852, 7.00, 5.00, 5.00, BLOCK_4=pattern
1256.556000, 1200.00, 150.00, 852, 7.00, 5.00, 5.00, BLOCK_4=pattern
1267.077000, 1200.00, 150.00, 852, 7.00, 5.00, 5.00, BLOCK_4=pattern
1277.597000, 1200.00, 150.00, 852, 7.00, 5.00, 5.00, BLOCK_4=pattern
1288.116500, 1200.00, 150.00, 852, 7.00, 5.00, 5.00, BLOCK_4=pattern
1298.637500, 1200.00, 150.00, 852, 7.00, 5.00, 5.00, BLOCK_4=pattern
1309.157500, 1200.00, 150.00, 852, 7.00, 5.00, 5.00, BLOCK_4=pattern
1319.678000, 1200.00, 150.00, 852, 7.00, 5.00, 5.00, BLOCK_4=pattern
1330.198000, 1200.00, 150.00, 852, 7.00, 5.00, 5.00, BLOCK_4=pattern
1340.718000, 1200.00, 150.00, 852, 7.00, 5.00, 5.00, BLOCK_4=pattern
1351.238500, 1200.00, 150.00, 852, 7.00, 5.00, 5.00, BLOCK_4=pattern
1361.758500, 1200.00, 150.00, 852, 7.00, 5.00, 5.00, BLOCK_4=pattern
1372.278500, 1200.00, 150.00, 852, 7.00, 5.00, 5.00, BLOCK_4=pattern
1382.799000, 1200.00, 150.00, 852, 7.00, 5.00, 5.00, BLOCK_4=pattern
1393.319000, 1200.00, 150.00, 852, 7.00, 5.00, 5.00, BLOCK_4=pattern
1403.840000, 1200.00, 150.00, 852, 7.00, 5.00, 5.00, BLOCK_4=pattern
1414.359500, 1200.00, 150.00, 852, 7.00, 5.00, 5.00, BLOCK_4=pattern
1424.879500, 1200.00, 150.00, 852, 7.00, 5.00, 5.00, BLOCK_4=pattern
1435.400500, 1200.00, 150.00, 852, 7.00, 5.00, 5.00, BLOCK_4=pattern
1445.920000, 1200.00, 150.00, 852, 7.00, 5.00, 5.00, BLOCK_4=pattern
1456.441000, 1200.00, 150.00, 852, 7.00, 5.00, 5.00, BLOCK_4=pattern
1466.961000, 1200.00, 150.00, 852, 7.00, 5.00, 5.00, BLOCK_4=pattern
1477.480500, 1200.00, 150.00, 852, 7.00, 5.00, 5.00, BLOCK_4=pattern
1488.001500, 1200.00, 150.00, 852, 7.00, 5.00, 5.00, BLOCK_4=pattern
