145.793000,     20.00,      500.00,      400.000000,              14.00,             5.00,              15.00,               RING_ADMES
166.482000,     20.00,      500.00,      400.000000,              21.00,             5.00,              15.00,               RING_ADMES
187.173000,     20.00,      500.00,      400.000000,              14.00,             5.00,              15.00,               RING_ADMES
207.844000,     20.00,      500.00,      400.000000,              14.00,             5.00,              15.00,               RING_ADMES
228.504000,     20.00,      500.00,      400.000000,              21.00,             5.00,              15.00,               RING_ADMES
249.165000,     20.00,      500.00,      400.000000,              21.00,             5.00,              15.00,               RING_ADMES
269.826000,     20.00,      500.00,      400.000000,              14.00,             5.00,              15.00,               RING_ADMES
290.505000,     20.00,      500.00,      400.000000,              2.00,             5.00,              15.00,               RING_ADMES
311.256000,     20.00,      500.00,      400.000000,              2.00,             5.00,              15.00,               RING_ADMES
332.006000,     20.00,      500.00,      400.000000,              2.00,             5.00,              15.00,               RING_ADMES
352.767000,     20.00,      500.00,      400.000000,              14.00,             5.00,              15.00,               RING_ADMES
373.418000,     20.00,      500.00,      400.000000,              7.00,             5.00,              15.00,               RING_ADMES
394.097000,     20.00,      500.00,      400.000000,              14.00,             5.00,              15.00,               RING_ADMES
414.768000,     20.00,      500.00,      400.000000,              21.00,             5.00,              15.00,               RING_ADMES
435.429000,     20.00,      500.00,      400.000000,              2.00,             5.00,              15.00,               RING_ADMES
456.169000,     20.00,      500.00,      400.000000,              2.00,             5.00,              15.00,               RING_ADMES
476.930000,     20.00,      500.00,      400.000000,              21.00,             5.00,              15.00,               RING_ADMES
497.591000,     20.00,      500.00,      400.000000,              14.00,             5.00,              15.00,               RING_ADMES
518.260000,     20.00,      500.00,      400.000000,              7.00,             5.00,              15.00,               RING_ADMES
538.931000,     20.00,      500.00,      400.000000,              21.00,             5.00,              15.00,               RING_ADMES
559.591000,     20.00,      500.00,      400.000000,              2.00,             5.00,              15.00,               RING_ADMES
580.342000,     20.00,      500.00,      400.000000,              2.00,             5.00,              15.00,               RING_ADMES
601.103000,     20.00,      500.00,      400.000000,              21.00,             5.00,              15.00,               RING_ADMES
621.762000,     20.00,      500.00,      400.000000,              7.00,             5.00,              15.00,               RING_ADMES
642.453000,     20.00,      500.00,      400.000000,              2.00,             5.00,              15.00,               RING_ADMES
663.204000,     20.00,      500.00,      400.000000,              14.00,             5.00,              15.00,               RING_ADMES
683.874000,     20.00,      500.00,      400.000000,              7.00,             5.00,              15.00,               RING_ADMES
704.555000,     20.00,      500.00,      400.000000,              21.00,             5.00,              15.00,               RING_ADMES
725.206000,     20.00,      500.00,      400.000000,              2.00,             5.00,              15.00,               RING_ADMES
745.965000,     20.00,      500.00,      400.000000,              7.00,             5.00,              15.00,               RING_ADMES
766.636000,     20.00,      500.00,      400.000000,              21.00,             5.00,              15.00,               RING_ADMES
787.296000,     20.00,      500.00,      400.000000,              14.00,             5.00,              15.00,               RING_ADMES
807.947000,     20.00,      500.00,      400.000000,              7.00,             5.00,              15.00,               RING_ADMES
828.628000,     20.00,      500.00,      400.000000,              7.00,             5.00,              15.00,               RING_ADMES
849.317000,     20.00,      500.00,      400.000000,              21.00,             5.00,              15.00,               RING_ADMES
869.988000,     20.00,      500.00,      400.000000,              7.00,             5.00,              15.00,               RING_ADMES
890.658000,     20.00,      500.00,      400.000000,              7.00,             5.00,              15.00,               RING_ADMES
911.339000,     20.00,      500.00,      400.000000,              2.00,             5.00,              15.00,               RING_ADMES
932.100000,     20.00,      500.00,      400.000000,              14.00,             5.00,              15.00,               RING_ADMES
952.760000,     20.00,      500.00,      400.000000,              7.00,             5.00,              15.00,               RING_ADMES
