0.929633,     20.00,      500.00,      400.000000,              14.00,             5.00,              15.00,               RING_ADMES
21.590000,     20.00,      500.00,      400.000000,              7.00,             5.00,              15.00,               RING_ADMES
42.261000,     20.00,      500.00,      400.000000,              21.00,             5.00,              15.00,               RING_ADMES
62.900633,     20.00,      500.00,      400.000000,              7.00,             5.00,              15.00,               RING_ADMES
83.581000,     20.00,      500.00,      400.000000,              7.00,             5.00,              15.00,               RING_ADMES
104.262000,     20.00,      500.00,      400.000000,              21.00,             5.00,              15.00,               RING_ADMES
124.922633,     20.00,      500.00,      400.000000,              2.00,             5.00,              15.00,               RING_ADMES
145.673000,     20.00,      500.00,      400.000000,              21.00,             5.00,              15.00,               RING_ADMES
166.332633,     20.00,      500.00,      400.000000,              2.00,             5.00,              15.00,               RING_ADMES
187.083000,     20.00,      500.00,      400.000000,              14.00,             5.00,              15.00,               RING_ADMES
207.734000,     20.00,      500.00,      400.000000,              21.00,             5.00,              15.00,               RING_ADMES
228.395000,     20.00,      500.00,      400.000000,              21.00,             5.00,              15.00,               RING_ADMES
249.065000,     20.00,      500.00,      400.000000,              2.00,             5.00,              15.00,               RING_ADMES
269.816000,     20.00,      500.00,      400.000000,              14.00,             5.00,              15.00,               RING_ADMES
290.485633,     20.00,      500.00,      400.000000,              14.00,             5.00,              15.00,               RING_ADMES
311.156000,     20.00,      500.00,      400.000000,              21.00,             5.00,              15.00,               RING_ADMES
331.816633,     20.00,      500.00,      400.000000,              14.00,             5.00,              15.00,               RING_ADMES
352.483000,     20.00,      500.00,      400.000000,              2.00,             5.00,              15.00,               RING_ADMES
373.248000,     20.00,      500.00,      400.000000,              7.00,             5.00,              15.00,               RING_ADMES
393.918000,     20.00,      500.00,      400.000000,              21.00,             5.00,              15.00,               RING_ADMES
414.588000,     20.00,      500.00,      400.000000,              7.00,             5.00,              15.00,               RING_ADMES
435.259000,     20.00,      500.00,      400.000000,              7.00,             5.00,              15.00,               RING_ADMES
455.939633,     20.00,      500.00,      400.000000,              14.00,             5.00,              15.00,               RING_ADMES
476.600000,     20.00,      500.00,      400.000000,              2.00,             5.00,              15.00,               RING_ADMES
497.371000,     20.00,      500.00,      400.000000,              2.00,             5.00,              15.00,               RING_ADMES
518.130633,     20.00,      500.00,      400.000000,              14.00,             5.00,              15.00,               RING_ADMES
538.801000,     20.00,      500.00,      400.000000,              7.00,             5.00,              15.00,               RING_ADMES
559.482000,     20.00,      500.00,      400.000000,              21.00,             5.00,              15.00,               RING_ADMES
580.142000,     20.00,      500.00,      400.000000,              14.00,             5.00,              15.00,               RING_ADMES
600.813000,     20.00,      500.00,      400.000000,              2.00,             5.00,              15.00,               RING_ADMES
621.572633,     20.00,      500.00,      400.000000,              7.00,             5.00,              15.00,               RING_ADMES
642.243000,     20.00,      500.00,      400.000000,              7.00,             5.00,              15.00,               RING_ADMES
662.904000,     20.00,      500.00,      400.000000,              2.00,             5.00,              15.00,               RING_ADMES
683.654633,     20.00,      500.00,      400.000000,              2.00,             5.00,              15.00,               RING_ADMES
704.415000,     20.00,      500.00,      400.000000,              14.00,             5.00,              15.00,               RING_ADMES
725.085000,     20.00,      500.00,      400.000000,              21.00,             5.00,              15.00,               RING_ADMES
745.735633,     20.00,      500.00,      400.000000,              21.00,             5.00,              15.00,               RING_ADMES
766.396000,     20.00,      500.00,      400.000000,              2.00,             5.00,              15.00,               RING_ADMES
787.147000,     20.00,      500.00,      400.000000,              7.00,             5.00,              15.00,               RING_ADMES
807.817000,     20.00,      500.00,      400.000000,              14.00,             5.00,              15.00,               RING_ADMES
