17.860000, 120.00, 2300.00, 452, 130.00, 5.00, 5.00, synchronous, anterior_dorsal=13, anterior_ventral=21, posterior_dorsal=22, posterior_ventral=2
28.371000, 120.00, 2300.00, 452, 130.00, 5.00, 5.00, synchronous, anterior_dorsal=13, anterior_ventral=21, posterior_dorsal=22, posterior_ventral=2
38.890633, 120.00, 2300.00, 452, 130.00, 5.00, 5.00, synchronous, anterior_dorsal=13, anterior_ventral=21, posterior_dorsal=22, posterior_ventral=2
49.400633, 120.00, 2300.00, 452, 130.00, 5.00, 5.00, synchronous, anterior_dorsal=13, anterior_ventral=21, posterior_dorsal=22, posterior_ventral=2
59.921000, 120.00, 2300.00, 452, 130.00, 5.00, 5.00, synchronous, anterior_dorsal=13, anterior_ventral=21, posterior_dorsal=22, posterior_ventral=2
70.441000, 120.00, 2300.00, 452, 130.00, 5.00, 5.00, synchronous, anterior_dorsal=13, anterior_ventral=21, posterior_dorsal=22, posterior_ventral=2
80.962000, 120.00, 2300.00, 452, 130.00, 5.00, 5.00, synchronous, anterior_dorsal=13, anterior_ventral=21, posterior_dorsal=22, posterior_ventral=2
91.482000, 120.00, 2300.00, 452, 130.00, 5.00, 5.00, synchronous, anterior_dorsal=13, anterior_ventral=21, posterior_dorsal=22, posterior_ventral=2
102.001633, 120.00, 2300.00, 452, 130.00, 5.00, 5.00, synchronous, anterior_dorsal=13, anterior_ventral=21, posterior_dorsal=22, posterior_ventral=2
112.522633, 120.00, 2300.00, 452, 130.00, 5.00, 5.00, synchronous, anterior_dorsal=13, anterior_ventral=21, posterior_dorsal=22, posterior_ventral=2
123.032000, 120.00, 2300.00, 452, 130.00, 5.00, 5.00, synchronous, anterior_dorsal=13, anterior_ventral=21, posterior_dorsal=22, posterior_ventral=2
133.553000, 120.00, 2300.00, 452, 130.00, 5.00, 5.00, synchronous, anterior_dorsal=13, anterior_ventral=21, posterior_dorsal=22, posterior_ventral=2
