17.060000, 120.00, 1100.00, 452, 130.00, 5.00, 5.00, synchronous, anterior_dorsal=13, anterior_ventral=21, posterior_dorsal=22, posterior_ventral=2
27.580633, 120.00, 1100.00, 452, 130.00, 5.00, 5.00, synchronous, anterior_dorsal=13, anterior_ventral=21, posterior_dorsal=22, posterior_ventral=2
38.100633, 120.00, 1100.00, 452, 130.00, 5.00, 5.00, synchronous, anterior_dorsal=13, anterior_ventral=21, posterior_dorsal=22, posterior_ventral=2
48.621633, 120.00, 1100.00, 452, 130.00, 5.00, 5.00, synchronous, anterior_dorsal=13, anterior_ventral=21, posterior_dorsal=22, posterior_ventral=2
59.141000, 120.00, 1100.00, 452, 130.00, 5.00, 5.00, synchronous, anterior_dorsal=13, anterior_ventral=21, posterior_dorsal=22, posterior_ventral=2
69.651000, 120.00, 1100.00, 452, 130.00, 5.00, 5.00, synchronous, anterior_dorsal=13, anterior_ventral=21, posterior_dorsal=22, posterior_ventral=2
80.172000, 120.00, 1100.00, 452, 130.00, 5.00, 5.00, synchronous, anterior_dorsal=13, anterior_ventral=21, posterior_dorsal=22, posterior_ventral=2
90.692000, 120.00, 1100.00, 452, 130.00, 5.00, 5.00, synchronous, anterior_dorsal=13, anterior_ventral=21, posterior_dorsal=22, posterior_ventral=2
101.202633, 120.00, 1100.00, 452, 130.00, 5.00, 5.00, synchronous, anterior_dorsal=13, anterior_ventral=21, posterior_dorsal=22, posterior_ventral=2
111.722633, 120.00, 1100.00, 452, 130.00, 5.00, 5.00, synchronous, anterior_dorsal=13, anterior_ventral=21, posterior_dorsal=22, posterior_ventral=2
122.232000, 120.00, 1100.00, 452, 130.00, 5.00, 5.00, synchronous, anterior_dorsal=13, anterior_ventral=21, posterior_dorsal=22, posterior_ventral=2
132.753000, 120.00, 1100.00, 452, 130.00, 5.00, 5.00, synchronous, anterior_dorsal=13, anterior_ventral=21, posterior_dorsal=22, posterior_ventral=2
