18.650000, 120.00, 1700.00, 452, 130.00, 5.00, 5.00, synchronous, anterior_dorsal=13, anterior_ventral=21, posterior_dorsal=22, posterior_ventral=2
29.171000, 120.00, 1700.00, 452, 130.00, 5.00, 5.00, synchronous, anterior_dorsal=13, anterior_ventral=21, posterior_dorsal=22, posterior_ventral=2
39.690633, 120.00, 1700.00, 452, 130.00, 5.00, 5.00, synchronous, anterior_dorsal=13, anterior_ventral=21, posterior_dorsal=22, posterior_ventral=2
50.211633, 120.00, 1700.00, 452, 130.00, 5.00, 5.00, synchronous, anterior_dorsal=13, anterior_ventral=21, posterior_dorsal=22, posterior_ventral=2
60.731633, 120.00, 1700.00, 452, 130.00, 5.00, 5.00, synchronous, anterior_dorsal=13, anterior_ventral=21, posterior_dorsal=22, posterior_ventral=2
71.251000, 120.00, 1700.00, 452, 130.00, 5.00, 5.00, synchronous, anterior_dorsal=13, anterior_ventral=21, posterior_dorsal=22, posterior_ventral=2
81.772000, 120.00, 1700.00, 452, 130.00, 5.00, 5.00, synchronous, anterior_dorsal=13, anterior_ventral=21, posterior_dorsal=22, posterior_ventral=2
92.292000, 120.00, 1700.00, 452, 130.00, 5.00, 5.00, synchronous, anterior_dorsal=13, anterior_ventral=21, posterior_dorsal=22, posterior_ventral=2
102.812633, 120.00, 1700.00, 452, 130.00, 5.00, 5.00, synchronous, anterior_dorsal=13, anterior_ventral=21, posterior_dorsal=22, posterior_ventral=2
113.332633, 120.00, 1700.00, 452, 130.00, 5.00, 5.00, synchronous, anterior_dorsal=13, anterior_ventral=21, posterior_dorsal=22, posterior_ventral=2
123.852000, 120.00, 1700.00, 452, 130.00, 5.00, 5.00, synchronous, anterior_dorsal=13, anterior_ventral=21, posterior_dorsal=22, posterior_ventral=2
134.373000, 120.00, 1700.00, 452, 130.00, 5.00, 5.00, synchronous, anterior_dorsal=13, anterior_ventral=21, posterior_dorsal=22, posterior_ventral=2
