20.290000, 120.00, 2100.00, 452, 130.00, 5.00, 5.00, synchronous, anterior_dorsal=13, anterior_ventral=21, posterior_dorsal=22, posterior_ventral=2
30.810000, 120.00, 2100.00, 452, 130.00, 5.00, 5.00, synchronous, anterior_dorsal=13, anterior_ventral=21, posterior_dorsal=22, posterior_ventral=2
41.331000, 120.00, 2100.00, 452, 130.00, 5.00, 5.00, synchronous, anterior_dorsal=13, anterior_ventral=21, posterior_dorsal=22, posterior_ventral=2
51.850633, 120.00, 2100.00, 452, 130.00, 5.00, 5.00, synchronous, anterior_dorsal=13, anterior_ventral=21, posterior_dorsal=22, posterior_ventral=2
62.370633, 120.00, 2100.00, 452, 130.00, 5.00, 5.00, synchronous, anterior_dorsal=13, anterior_ventral=21, posterior_dorsal=22, posterior_ventral=2
72.901633, 120.00, 2100.00, 452, 130.00, 5.00, 5.00, synchronous, anterior_dorsal=13, anterior_ventral=21, posterior_dorsal=22, posterior_ventral=2
83.421000, 120.00, 2100.00, 452, 130.00, 5.00, 5.00, synchronous, anterior_dorsal=13, anterior_ventral=21, posterior_dorsal=22, posterior_ventral=2
93.932000, 120.00, 2100.00, 452, 130.00, 5.00, 5.00, synchronous, anterior_dorsal=13, anterior_ventral=21, posterior_dorsal=22, posterior_ventral=2
104.442000, 120.00, 2100.00, 452, 130.00, 5.00, 5.00, synchronous, anterior_dorsal=13, anterior_ventral=21, posterior_dorsal=22, posterior_ventral=2
114.951633, 120.00, 2100.00, 452, 130.00, 5.00, 5.00, synchronous, anterior_dorsal=13, anterior_ventral=21, posterior_dorsal=22, posterior_ventral=2
125.472633, 120.00, 2100.00, 452, 130.00, 5.00, 5.00, synchronous, anterior_dorsal=13, anterior_ventral=21, posterior_dorsal=22, posterior_ventral=2
135.982000, 120.00, 2100.00, 452, 130.00, 5.00, 5.00, synchronous, anterior_dorsal=13, anterior_ventral=21, posterior_dorsal=22, posterior_ventral=2
